{
  "version": "v4",
  "repo": "borisyankov/DefinitelyTyped",
  "ref": "master",
  "path": "typings",
  "bundle": "typings/tsd.d.ts",
  "installed": {
    "jquery/jquery.d.ts": {
      "commit": "cd280100a8bc1ac1604d02178cd1c54bb9b9728d"
    },
    "jquery.cookie/jquery.cookie.d.ts": {
      "commit": "cd280100a8bc1ac1604d02178cd1c54bb9b9728d"
    },
    "requirejs/require.d.ts": {
      "commit": "cd280100a8bc1ac1604d02178cd1c54bb9b9728d"
    }
  }
}
